%YAML 1.1
%TAG !u! tag:unity3d.com,2011:
--- !u!29 &1
OcclusionCullingSettings:
  m_ObjectHideFlags: 0
  serializedVersion: 2
  m_OcclusionBakeSettings:
    smallestOccluder: 5
    smallestHole: 0.25
    backfaceThreshold: 100
  m_SceneGUID: 00000000000000000000000000000000
  m_OcclusionCullingData: {fileID: 0}
--- !u!104 &2
RenderSettings:
  m_ObjectHideFlags: 0
  serializedVersion: 8
  m_Fog: 0
  m_FogColor: {r: 0.5, g: 0.5, b: 0.5, a: 1}
  m_FogMode: 3
  m_FogDensity: 0.01
  m_LinearFogStart: 0
  m_LinearFogEnd: 300
  m_AmbientSkyColor: {r: 0, g: 0, b: 0, a: 1}
  m_AmbientEquatorColor: {r: 0.114, g: 0.125, b: 0.133, a: 1}
  m_AmbientGroundColor: {r: 0.047, g: 0.043, b: 0.035, a: 1}
  m_AmbientIntensity: 1
  m_AmbientMode: 3
  m_SubtractiveShadowColor: {r: 0.42, g: 0.478, b: 0.627, a: 1}
  m_SkyboxMaterial: {fileID: 0}
  m_HaloStrength: 0.5
  m_FlareStrength: 1
  m_FlareFadeSpeed: 3
  m_HaloTexture: {fileID: 0}
  m_SpotCookie: {fileID: 10001, guid: 0000000000000000e000000000000000, type: 0}
  m_DefaultReflectionMode: 0
  m_DefaultReflectionResolution: 128
  m_ReflectionBounces: 1
  m_ReflectionIntensity: 1
  m_CustomReflection: {fileID: 0}
  m_Sun: {fileID: 0}
  m_IndirectSpecularColor: {r: 0, g: 0, b: 0, a: 1}
--- !u!157 &3
LightmapSettings:
  m_ObjectHideFlags: 0
  serializedVersion: 11
  m_GIWorkflowMode: 0
  m_GISettings:
    serializedVersion: 2
    m_BounceScale: 1
    m_IndirectOutputScale: 1
    m_AlbedoBoost: 1
    m_TemporalCoherenceThreshold: 1
    m_EnvironmentLightingMode: 0
    m_EnableBakedLightmaps: 1
    m_EnableRealtimeLightmaps: 1
  m_LightmapEditorSettings:
    serializedVersion: 9
    m_Resolution: 2
    m_BakeResolution: 40
    m_TextureWidth: 1024
    m_TextureHeight: 1024
    m_AO: 0
    m_AOMaxDistance: 1
    m_CompAOExponent: 1
    m_CompAOExponentDirect: 0
    m_Padding: 2
    m_LightmapParameters: {fileID: 0}
    m_LightmapsBakeMode: 1
    m_TextureCompression: 1
    m_FinalGather: 0
    m_FinalGatherFiltering: 1
    m_FinalGatherRayCount: 256
    m_ReflectionCompression: 2
    m_MixedBakeMode: 1
    m_BakeBackend: 0
    m_PVRSampling: 1
    m_PVRDirectSampleCount: 32
    m_PVRSampleCount: 500
    m_PVRBounces: 2
    m_PVRFilterTypeDirect: 0
    m_PVRFilterTypeIndirect: 0
    m_PVRFilterTypeAO: 0
    m_PVRFilteringMode: 0
    m_PVRCulling: 1
    m_PVRFilteringGaussRadiusDirect: 1
    m_PVRFilteringGaussRadiusIndirect: 5
    m_PVRFilteringGaussRadiusAO: 2
    m_PVRFilteringAtrousPositionSigmaDirect: 0.5
    m_PVRFilteringAtrousPositionSigmaIndirect: 2
    m_PVRFilteringAtrousPositionSigmaAO: 1
    m_ShowResolutionOverlay: 1
  m_LightingDataAsset: {fileID: 0}
  m_UseShadowmask: 0
--- !u!196 &4
NavMeshSettings:
  serializedVersion: 2
  m_ObjectHideFlags: 0
  m_BuildSettings:
    serializedVersion: 2
    agentTypeID: 0
    agentRadius: 0.5
    agentHeight: 2
    agentSlope: 45
    agentClimb: 0.4
    ledgeDropHeight: 0
    maxJumpAcrossDistance: 0
    minRegionArea: 2
    manualCellSize: 0
    cellSize: 0.16666667
    manualTileSize: 0
    tileSize: 256
    accuratePlacement: 0
    debug:
      m_Flags: 0
  m_NavMeshData: {fileID: 0}
--- !u!1 &14037271
GameObject:
  m_ObjectHideFlags: 0
  m_PrefabParentObject: {fileID: 0}
  m_PrefabInternal: {fileID: 0}
  serializedVersion: 5
  m_Component:
  - component: {fileID: 14037272}
  m_Layer: 0
  m_Name: GameObject
  m_TagString: Untagged
  m_Icon: {fileID: 0}
  m_NavMeshLayer: 0
  m_StaticEditorFlags: 0
  m_IsActive: 1
--- !u!4 &14037272
Transform:
  m_ObjectHideFlags: 0
  m_PrefabParentObject: {fileID: 0}
  m_PrefabInternal: {fileID: 0}
  m_GameObject: {fileID: 14037271}
  m_LocalRotation: {x: 0, y: 0, z: 0, w: 1}
  m_LocalPosition: {x: 0, y: 0, z: 0}
  m_LocalScale: {x: 1, y: 1, z: 1}
  m_Children: []
  m_Father: {fileID: 2137368265}
  m_RootOrder: 0
  m_LocalEulerAnglesHint: {x: 0, y: 0, z: 0}
--- !u!1 &109655681
GameObject:
  m_ObjectHideFlags: 0
  m_PrefabParentObject: {fileID: 0}
  m_PrefabInternal: {fileID: 0}
  serializedVersion: 5
  m_Component:
  - component: {fileID: 109655682}
  m_Layer: 0
  m_Name: GameObject
  m_TagString: Untagged
  m_Icon: {fileID: 0}
  m_NavMeshLayer: 0
  m_StaticEditorFlags: 0
  m_IsActive: 1
--- !u!4 &109655682
Transform:
  m_ObjectHideFlags: 0
  m_PrefabParentObject: {fileID: 0}
  m_PrefabInternal: {fileID: 0}
  m_GameObject: {fileID: 109655681}
  m_LocalRotation: {x: 0, y: 0, z: 0, w: 1}
  m_LocalPosition: {x: 0, y: 0, z: 0}
  m_LocalScale: {x: 1, y: 1, z: 1}
  m_Children: []
  m_Father: {fileID: 564235811}
  m_RootOrder: 0
  m_LocalEulerAnglesHint: {x: 0, y: 0, z: 0}
--- !u!1 &225059903
GameObject:
  m_ObjectHideFlags: 0
  m_PrefabParentObject: {fileID: 0}
  m_PrefabInternal: {fileID: 0}
  serializedVersion: 5
  m_Component:
  - component: {fileID: 225059904}
  m_Layer: 0
  m_Name: GameObject
  m_TagString: Untagged
  m_Icon: {fileID: 0}
  m_NavMeshLayer: 0
  m_StaticEditorFlags: 0
  m_IsActive: 1
--- !u!4 &225059904
Transform:
  m_ObjectHideFlags: 0
  m_PrefabParentObject: {fileID: 0}
  m_PrefabInternal: {fileID: 0}
  m_GameObject: {fileID: 225059903}
  m_LocalRotation: {x: 0, y: 0, z: 0, w: 1}
  m_LocalPosition: {x: 0, y: 0, z: 0}
  m_LocalScale: {x: 1, y: 1, z: 1}
  m_Children: []
  m_Father: {fileID: 1280021154}
  m_RootOrder: 0
  m_LocalEulerAnglesHint: {x: 0, y: 0, z: 0}
--- !u!1001 &428239549
Prefab:
  m_ObjectHideFlags: 0
  serializedVersion: 2
  m_Modification:
    m_TransformParent: {fileID: 1268034915}
    m_Modifications:
    - target: {fileID: 466162, guid: fdeb35bdab08b7442a67e36ffe2ff830, type: 2}
      propertyPath: m_LocalPosition.x
      value: 0.33199978
      objectReference: {fileID: 0}
    - target: {fileID: 466162, guid: fdeb35bdab08b7442a67e36ffe2ff830, type: 2}
      propertyPath: m_LocalPosition.y
      value: -0.32000017
      objectReference: {fileID: 0}
    - target: {fileID: 466162, guid: fdeb35bdab08b7442a67e36ffe2ff830, type: 2}
      propertyPath: m_LocalPosition.z
      value: 3.5000002
      objectReference: {fileID: 0}
    - target: {fileID: 466162, guid: fdeb35bdab08b7442a67e36ffe2ff830, type: 2}
      propertyPath: m_LocalRotation.x
      value: 0.5661658
      objectReference: {fileID: 0}
    - target: {fileID: 466162, guid: fdeb35bdab08b7442a67e36ffe2ff830, type: 2}
      propertyPath: m_LocalRotation.y
      value: -0.100054756
      objectReference: {fileID: 0}
    - target: {fileID: 466162, guid: fdeb35bdab08b7442a67e36ffe2ff830, type: 2}
      propertyPath: m_LocalRotation.z
      value: 0.069485754
      objectReference: {fileID: 0}
    - target: {fileID: 466162, guid: fdeb35bdab08b7442a67e36ffe2ff830, type: 2}
      propertyPath: m_LocalRotation.w
      value: 0.81524056
      objectReference: {fileID: 0}
    - target: {fileID: 466162, guid: fdeb35bdab08b7442a67e36ffe2ff830, type: 2}
      propertyPath: m_RootOrder
      value: 3
      objectReference: {fileID: 0}
    - target: {fileID: 466162, guid: fdeb35bdab08b7442a67e36ffe2ff830, type: 2}
      propertyPath: m_LocalScale.x
      value: 0.12
      objectReference: {fileID: 0}
    - target: {fileID: 466162, guid: fdeb35bdab08b7442a67e36ffe2ff830, type: 2}
      propertyPath: m_LocalScale.y
      value: 0.12
      objectReference: {fileID: 0}
    - target: {fileID: 466162, guid: fdeb35bdab08b7442a67e36ffe2ff830, type: 2}
      propertyPath: m_LocalScale.z
      value: 0.12
      objectReference: {fileID: 0}
    - target: {fileID: 3327276, guid: fdeb35bdab08b7442a67e36ffe2ff830, type: 2}
      propertyPath: m_Mesh
      value: 
      objectReference: {fileID: 0}
    - target: {fileID: 11466842, guid: fdeb35bdab08b7442a67e36ffe2ff830, type: 2}
      propertyPath: m_Length
      value: 0.42
      objectReference: {fileID: 0}
    - target: {fileID: 466162, guid: fdeb35bdab08b7442a67e36ffe2ff830, type: 2}
      propertyPath: m_LocalEulerAnglesHint.x
      value: 69.536
      objectReference: {fileID: 0}
    - target: {fileID: 11466842, guid: fdeb35bdab08b7442a67e36ffe2ff830, type: 2}
      propertyPath: m_Color.r
      value: 0.71797836
      objectReference: {fileID: 0}
    - target: {fileID: 11466842, guid: fdeb35bdab08b7442a67e36ffe2ff830, type: 2}
      propertyPath: m_Color.g
      value: 0.26735508
      objectReference: {fileID: 0}
    - target: {fileID: 11466842, guid: fdeb35bdab08b7442a67e36ffe2ff830, type: 2}
      propertyPath: m_Color.b
      value: 0.8455882
      objectReference: {fileID: 0}
    - target: {fileID: 11466842, guid: fdeb35bdab08b7442a67e36ffe2ff830, type: 2}
      propertyPath: m_Radius
      value: 0.06
      objectReference: {fileID: 0}
    - target: {fileID: 11466842, guid: fdeb35bdab08b7442a67e36ffe2ff830, type: 2}
      propertyPath: m_Range
      value: 4
      objectReference: {fileID: 0}
    - target: {fileID: 11466842, guid: fdeb35bdab08b7442a67e36ffe2ff830, type: 2}
      propertyPath: m_Intensity
      value: 0.45
      objectReference: {fileID: 0}
    - target: {fileID: 154090, guid: fdeb35bdab08b7442a67e36ffe2ff830, type: 2}
      propertyPath: m_Name
      value: TubeLight (1)
      objectReference: {fileID: 0}
    - target: {fileID: 11466842, guid: fdeb35bdab08b7442a67e36ffe2ff830, type: 2}
      propertyPath: m_Enabled
      value: 1
      objectReference: {fileID: 0}
    - target: {fileID: 154090, guid: fdeb35bdab08b7442a67e36ffe2ff830, type: 2}
      propertyPath: m_IsActive
      value: 0
      objectReference: {fileID: 0}
    - target: {fileID: 114000012794840980, guid: fdeb35bdab08b7442a67e36ffe2ff830,
        type: 2}
      propertyPath: m_IntensityMult
      value: 1
      objectReference: {fileID: 0}
    - target: {fileID: 466162, guid: fdeb35bdab08b7442a67e36ffe2ff830, type: 2}
      propertyPath: m_LocalEulerAnglesHint.y
      value: -13.691001
      objectReference: {fileID: 0}
    m_RemovedComponents: []
  m_ParentPrefab: {fileID: 100100000, guid: fdeb35bdab08b7442a67e36ffe2ff830, type: 2}
  m_IsPrefabParent: 0
--- !u!4 &428239550 stripped
Transform:
  m_PrefabParentObject: {fileID: 466162, guid: fdeb35bdab08b7442a67e36ffe2ff830, type: 2}
  m_PrefabInternal: {fileID: 428239549}
--- !u!1 &443500958
GameObject:
  m_ObjectHideFlags: 0
  m_PrefabParentObject: {fileID: 0}
  m_PrefabInternal: {fileID: 0}
  serializedVersion: 5
  m_Component:
  - component: {fileID: 443500959}
  m_Layer: 0
  m_Name: GameObject
  m_TagString: Untagged
  m_Icon: {fileID: 0}
  m_NavMeshLayer: 0
  m_StaticEditorFlags: 0
  m_IsActive: 1
--- !u!4 &443500959
Transform:
  m_ObjectHideFlags: 0
  m_PrefabParentObject: {fileID: 0}
  m_PrefabInternal: {fileID: 0}
  m_GameObject: {fileID: 443500958}
  m_LocalRotation: {x: 0, y: 0, z: 0, w: 1}
  m_LocalPosition: {x: 0, y: 0, z: 0}
  m_LocalScale: {x: 1, y: 1, z: 1}
  m_Children: []
  m_Father: {fileID: 775353828}
  m_RootOrder: 0
  m_LocalEulerAnglesHint: {x: 0, y: 0, z: 0}
--- !u!1 &564235807
GameObject:
  m_ObjectHideFlags: 0
  m_PrefabParentObject: {fileID: 0}
  m_PrefabInternal: {fileID: 0}
  serializedVersion: 5
  m_Component:
  - component: {fileID: 564235811}
  - component: {fileID: 564235810}
  - component: {fileID: 564235809}
  - component: {fileID: 564235808}
  m_Layer: 0
  m_Name: Plane (3)
  m_TagString: Untagged
  m_Icon: {fileID: 0}
  m_NavMeshLayer: 0
  m_StaticEditorFlags: 0
  m_IsActive: 1
--- !u!23 &564235808
MeshRenderer:
  m_ObjectHideFlags: 0
  m_PrefabParentObject: {fileID: 0}
  m_PrefabInternal: {fileID: 0}
  m_GameObject: {fileID: 564235807}
  m_Enabled: 1
  m_CastShadows: 1
  m_ReceiveShadows: 1
  m_DynamicOccludee: 1
  m_MotionVectors: 1
  m_LightProbeUsage: 1
  m_ReflectionProbeUsage: 1
  m_Materials:
  - {fileID: 2100000, guid: 407b0765066496e4da88d97aa9205037, type: 2}
  m_StaticBatchInfo:
    firstSubMesh: 0
    subMeshCount: 0
  m_StaticBatchRoot: {fileID: 0}
  m_ProbeAnchor: {fileID: 0}
  m_LightProbeVolumeOverride: {fileID: 0}
  m_ScaleInLightmap: 1
  m_PreserveUVs: 1
  m_IgnoreNormalsForChartDetection: 0
  m_ImportantGI: 0
  m_StitchLightmapSeams: 0
  m_SelectedEditorRenderState: 3
  m_MinimumChartSize: 4
  m_AutoUVMaxDistance: 0.5
  m_AutoUVMaxAngle: 89
  m_LightmapParameters: {fileID: 0}
  m_SortingLayerID: 0
  m_SortingLayer: 0
  m_SortingOrder: 0
--- !u!64 &564235809
MeshCollider:
  m_ObjectHideFlags: 0
  m_PrefabParentObject: {fileID: 0}
  m_PrefabInternal: {fileID: 0}
  m_GameObject: {fileID: 564235807}
  m_Material: {fileID: 0}
  m_IsTrigger: 0
  m_Enabled: 1
  serializedVersion: 3
  m_Convex: 0
  m_CookingOptions: 14
  m_SkinWidth: 0.01
  m_Mesh: {fileID: 10209, guid: 0000000000000000e000000000000000, type: 0}
--- !u!33 &564235810
MeshFilter:
  m_ObjectHideFlags: 0
  m_PrefabParentObject: {fileID: 0}
  m_PrefabInternal: {fileID: 0}
  m_GameObject: {fileID: 564235807}
  m_Mesh: {fileID: 10209, guid: 0000000000000000e000000000000000, type: 0}
--- !u!4 &564235811
Transform:
  m_ObjectHideFlags: 0
  m_PrefabParentObject: {fileID: 0}
  m_PrefabInternal: {fileID: 0}
  m_GameObject: {fileID: 564235807}
  m_LocalRotation: {x: -0.5, y: 0.5, z: 0.5, w: 0.5}
  m_LocalPosition: {x: 7.7599993, y: 8.780001, z: 3.8100002}
  m_LocalScale: {x: 1.953109, y: 1.9531087, z: 1.9531087}
  m_Children:
  - {fileID: 109655682}
  m_Father: {fileID: 1147608812}
  m_RootOrder: 5
  m_LocalEulerAnglesHint: {x: -90, y: 90, z: 0}
--- !u!1 &589242805
GameObject:
  m_ObjectHideFlags: 0
  m_PrefabParentObject: {fileID: 0}
  m_PrefabInternal: {fileID: 0}
  serializedVersion: 5
  m_Component:
  - component: {fileID: 589242806}
  m_Layer: 0
  m_Name: GameObject
  m_TagString: Untagged
  m_Icon: {fileID: 0}
  m_NavMeshLayer: 0
  m_StaticEditorFlags: 0
  m_IsActive: 1
--- !u!4 &589242806
Transform:
  m_ObjectHideFlags: 0
  m_PrefabParentObject: {fileID: 0}
  m_PrefabInternal: {fileID: 0}
  m_GameObject: {fileID: 589242805}
  m_LocalRotation: {x: 0, y: 0, z: 0, w: 1}
  m_LocalPosition: {x: 0, y: 0, z: 0}
  m_LocalScale: {x: 1, y: 1, z: 1}
  m_Children: []
  m_Father: {fileID: 1906959832}
  m_RootOrder: 0
  m_LocalEulerAnglesHint: {x: 0, y: 0, z: 0}
--- !u!1 &775353824
GameObject:
  m_ObjectHideFlags: 0
  m_PrefabParentObject: {fileID: 0}
  m_PrefabInternal: {fileID: 0}
  serializedVersion: 5
  m_Component:
  - component: {fileID: 775353828}
  - component: {fileID: 775353827}
  - component: {fileID: 775353826}
  - component: {fileID: 775353825}
  m_Layer: 0
  m_Name: Cube
  m_TagString: Untagged
  m_Icon: {fileID: 0}
  m_NavMeshLayer: 0
  m_StaticEditorFlags: 0
  m_IsActive: 1
--- !u!23 &775353825
MeshRenderer:
  m_ObjectHideFlags: 0
  m_PrefabParentObject: {fileID: 0}
  m_PrefabInternal: {fileID: 0}
  m_GameObject: {fileID: 775353824}
  m_Enabled: 1
  m_CastShadows: 1
  m_ReceiveShadows: 1
  m_DynamicOccludee: 1
  m_MotionVectors: 1
  m_LightProbeUsage: 1
  m_ReflectionProbeUsage: 1
  m_Materials:
  - {fileID: 2100000, guid: 407b0765066496e4da88d97aa9205037, type: 2}
  m_StaticBatchInfo:
    firstSubMesh: 0
    subMeshCount: 0
  m_StaticBatchRoot: {fileID: 0}
  m_ProbeAnchor: {fileID: 0}
  m_LightProbeVolumeOverride: {fileID: 0}
  m_ScaleInLightmap: 1
  m_PreserveUVs: 1
  m_IgnoreNormalsForChartDetection: 0
  m_ImportantGI: 0
  m_StitchLightmapSeams: 0
  m_SelectedEditorRenderState: 3
  m_MinimumChartSize: 4
  m_AutoUVMaxDistance: 0.5
  m_AutoUVMaxAngle: 89
  m_LightmapParameters: {fileID: 0}
  m_SortingLayerID: 0
  m_SortingLayer: 0
  m_SortingOrder: 0
--- !u!65 &775353826
BoxCollider:
  m_ObjectHideFlags: 0
  m_PrefabParentObject: {fileID: 0}
  m_PrefabInternal: {fileID: 0}
  m_GameObject: {fileID: 775353824}
  m_Material: {fileID: 0}
  m_IsTrigger: 0
  m_Enabled: 1
  serializedVersion: 2
  m_Size: {x: 1, y: 1, z: 1}
  m_Center: {x: 0, y: 0, z: 0}
--- !u!33 &775353827
MeshFilter:
  m_ObjectHideFlags: 0
  m_PrefabParentObject: {fileID: 0}
  m_PrefabInternal: {fileID: 0}
  m_GameObject: {fileID: 775353824}
  m_Mesh: {fileID: 10202, guid: 0000000000000000e000000000000000, type: 0}
--- !u!4 &775353828
Transform:
  m_ObjectHideFlags: 0
  m_PrefabParentObject: {fileID: 0}
  m_PrefabInternal: {fileID: 0}
  m_GameObject: {fileID: 775353824}
  m_LocalRotation: {x: -0, y: -0, z: -0, w: 1}
  m_LocalPosition: {x: -1.5159998, y: -0.63999987, z: 3.6027324}
  m_LocalScale: {x: 1, y: 1, z: 1}
  m_Children:
  - {fileID: 443500959}
  m_Father: {fileID: 1147608812}
  m_RootOrder: 1
  m_LocalEulerAnglesHint: {x: 0, y: 0, z: 0}
--- !u!1 &849426266
GameObject:
  m_ObjectHideFlags: 0
  m_PrefabParentObject: {fileID: 0}
  m_PrefabInternal: {fileID: 0}
  serializedVersion: 5
  m_Component:
  - component: {fileID: 849426270}
  - component: {fileID: 849426269}
  - component: {fileID: 849426268}
  - component: {fileID: 849426267}
  m_Layer: 0
  m_Name: Plane
  m_TagString: Untagged
  m_Icon: {fileID: 0}
  m_NavMeshLayer: 0
  m_StaticEditorFlags: 0
  m_IsActive: 1
--- !u!23 &849426267
MeshRenderer:
  m_ObjectHideFlags: 0
  m_PrefabParentObject: {fileID: 0}
  m_PrefabInternal: {fileID: 0}
  m_GameObject: {fileID: 849426266}
  m_Enabled: 1
  m_CastShadows: 1
  m_ReceiveShadows: 1
  m_DynamicOccludee: 1
  m_MotionVectors: 1
  m_LightProbeUsage: 1
  m_ReflectionProbeUsage: 1
  m_Materials:
  - {fileID: 2100000, guid: 407b0765066496e4da88d97aa9205037, type: 2}
  m_StaticBatchInfo:
    firstSubMesh: 0
    subMeshCount: 0
  m_StaticBatchRoot: {fileID: 0}
  m_ProbeAnchor: {fileID: 0}
  m_LightProbeVolumeOverride: {fileID: 0}
  m_ScaleInLightmap: 1
  m_PreserveUVs: 1
  m_IgnoreNormalsForChartDetection: 0
  m_ImportantGI: 0
  m_StitchLightmapSeams: 0
  m_SelectedEditorRenderState: 3
  m_MinimumChartSize: 4
  m_AutoUVMaxDistance: 0.5
  m_AutoUVMaxAngle: 89
  m_LightmapParameters: {fileID: 0}
  m_SortingLayerID: 0
  m_SortingLayer: 0
  m_SortingOrder: 0
--- !u!64 &849426268
MeshCollider:
  m_ObjectHideFlags: 0
  m_PrefabParentObject: {fileID: 0}
  m_PrefabInternal: {fileID: 0}
  m_GameObject: {fileID: 849426266}
  m_Material: {fileID: 0}
  m_IsTrigger: 0
  m_Enabled: 1
  serializedVersion: 3
  m_Convex: 0
  m_CookingOptions: 14
  m_SkinWidth: 0.01
  m_Mesh: {fileID: 10209, guid: 0000000000000000e000000000000000, type: 0}
--- !u!33 &849426269
MeshFilter:
  m_ObjectHideFlags: 0
  m_PrefabParentObject: {fileID: 0}
  m_PrefabInternal: {fileID: 0}
  m_GameObject: {fileID: 849426266}
  m_Mesh: {fileID: 10209, guid: 0000000000000000e000000000000000, type: 0}
--- !u!4 &849426270
Transform:
  m_ObjectHideFlags: 0
  m_PrefabParentObject: {fileID: 0}
  m_PrefabInternal: {fileID: 0}
  m_GameObject: {fileID: 849426266}
  m_LocalRotation: {x: -0, y: -0, z: -0, w: 1}
  m_LocalPosition: {x: -1.7578278, y: -0.98770285, z: 3.6027324}
  m_LocalScale: {x: 1.953109, y: 1.9531087, z: 1.9531087}
  m_Children: []
  m_Father: {fileID: 1147608812}
  m_RootOrder: 0
  m_LocalEulerAnglesHint: {x: 0, y: 0, z: 0}
--- !u!1001 &1040249005
Prefab:
  m_ObjectHideFlags: 0
  serializedVersion: 2
  m_Modification:
    m_TransformParent: {fileID: 1268034915}
    m_Modifications:
    - target: {fileID: 466162, guid: fdeb35bdab08b7442a67e36ffe2ff830, type: 2}
      propertyPath: m_LocalPosition.x
      value: -1.7799997
      objectReference: {fileID: 0}
    - target: {fileID: 466162, guid: fdeb35bdab08b7442a67e36ffe2ff830, type: 2}
      propertyPath: m_LocalPosition.y
      value: -0.38899994
      objectReference: {fileID: 0}
    - target: {fileID: 466162, guid: fdeb35bdab08b7442a67e36ffe2ff830, type: 2}
      propertyPath: m_LocalPosition.z
      value: 4.3100004
      objectReference: {fileID: 0}
    - target: {fileID: 466162, guid: fdeb35bdab08b7442a67e36ffe2ff830, type: 2}
      propertyPath: m_LocalRotation.x
      value: 0.57041365
      objectReference: {fileID: 0}
    - target: {fileID: 466162, guid: fdeb35bdab08b7442a67e36ffe2ff830, type: 2}
      propertyPath: m_LocalRotation.y
      value: -0
      objectReference: {fileID: 0}
    - target: {fileID: 466162, guid: fdeb35bdab08b7442a67e36ffe2ff830, type: 2}
      propertyPath: m_LocalRotation.z
      value: -0
      objectReference: {fileID: 0}
    - target: {fileID: 466162, guid: fdeb35bdab08b7442a67e36ffe2ff830, type: 2}
      propertyPath: m_LocalRotation.w
      value: 0.8213576
      objectReference: {fileID: 0}
    - target: {fileID: 466162, guid: fdeb35bdab08b7442a67e36ffe2ff830, type: 2}
      propertyPath: m_RootOrder
      value: 2
      objectReference: {fileID: 0}
    - target: {fileID: 466162, guid: fdeb35bdab08b7442a67e36ffe2ff830, type: 2}
      propertyPath: m_LocalScale.x
      value: 0.12
      objectReference: {fileID: 0}
    - target: {fileID: 466162, guid: fdeb35bdab08b7442a67e36ffe2ff830, type: 2}
      propertyPath: m_LocalScale.y
      value: 0.12
      objectReference: {fileID: 0}
    - target: {fileID: 466162, guid: fdeb35bdab08b7442a67e36ffe2ff830, type: 2}
      propertyPath: m_LocalScale.z
      value: 0.12
      objectReference: {fileID: 0}
    - target: {fileID: 3327276, guid: fdeb35bdab08b7442a67e36ffe2ff830, type: 2}
      propertyPath: m_Mesh
      value: 
      objectReference: {fileID: 0}
    - target: {fileID: 11466842, guid: fdeb35bdab08b7442a67e36ffe2ff830, type: 2}
      propertyPath: m_Length
      value: 0.42
      objectReference: {fileID: 0}
    - target: {fileID: 466162, guid: fdeb35bdab08b7442a67e36ffe2ff830, type: 2}
      propertyPath: m_LocalEulerAnglesHint.x
      value: 69.536
      objectReference: {fileID: 0}
    - target: {fileID: 11466842, guid: fdeb35bdab08b7442a67e36ffe2ff830, type: 2}
      propertyPath: m_Color.r
      value: 0.8455882
      objectReference: {fileID: 0}
    - target: {fileID: 11466842, guid: fdeb35bdab08b7442a67e36ffe2ff830, type: 2}
      propertyPath: m_Color.g
      value: 0.73392946
      objectReference: {fileID: 0}
    - target: {fileID: 11466842, guid: fdeb35bdab08b7442a67e36ffe2ff830, type: 2}
      propertyPath: m_Color.b
      value: 0.26735508
      objectReference: {fileID: 0}
    - target: {fileID: 11466842, guid: fdeb35bdab08b7442a67e36ffe2ff830, type: 2}
      propertyPath: m_Radius
      value: 0.06
      objectReference: {fileID: 0}
    - target: {fileID: 11466842, guid: fdeb35bdab08b7442a67e36ffe2ff830, type: 2}
      propertyPath: m_Range
      value: 4
      objectReference: {fileID: 0}
    - target: {fileID: 11466842, guid: fdeb35bdab08b7442a67e36ffe2ff830, type: 2}
      propertyPath: m_Intensity
      value: 1.11
      objectReference: {fileID: 0}
    - target: {fileID: 11466842, guid: fdeb35bdab08b7442a67e36ffe2ff830, type: 2}
      propertyPath: m_Enabled
      value: 1
      objectReference: {fileID: 0}
    - target: {fileID: 154090, guid: fdeb35bdab08b7442a67e36ffe2ff830, type: 2}
      propertyPath: m_IsActive
      value: 0
      objectReference: {fileID: 0}
    m_RemovedComponents: []
  m_ParentPrefab: {fileID: 100100000, guid: fdeb35bdab08b7442a67e36ffe2ff830, type: 2}
  m_IsPrefabParent: 0
--- !u!4 &1040249006 stripped
Transform:
  m_PrefabParentObject: {fileID: 466162, guid: fdeb35bdab08b7442a67e36ffe2ff830, type: 2}
  m_PrefabInternal: {fileID: 1040249005}
--- !u!1 &1147608811
GameObject:
  m_ObjectHideFlags: 0
  m_PrefabParentObject: {fileID: 0}
  m_PrefabInternal: {fileID: 0}
  serializedVersion: 5
  m_Component:
  - component: {fileID: 1147608812}
  m_Layer: 0
  m_Name: Meshes
  m_TagString: Untagged
  m_Icon: {fileID: 0}
  m_NavMeshLayer: 0
  m_StaticEditorFlags: 0
  m_IsActive: 1
--- !u!4 &1147608812
Transform:
  m_ObjectHideFlags: 0
  m_PrefabParentObject: {fileID: 0}
  m_PrefabInternal: {fileID: 0}
  m_GameObject: {fileID: 1147608811}
  m_LocalRotation: {x: 0, y: 0, z: 0, w: 1}
  m_LocalPosition: {x: 9.88, y: 7.06, z: -5.59}
  m_LocalScale: {x: 1, y: 1, z: 1}
  m_Children:
  - {fileID: 849426270}
  - {fileID: 775353828}
  - {fileID: 2116681704}
  - {fileID: 2137368265}
  - {fileID: 1865025248}
  - {fileID: 564235811}
  - {fileID: 1301331062}
  - {fileID: 1280021154}
  - {fileID: 1906959832}
  m_Father: {fileID: 0}
  m_RootOrder: 0
  m_LocalEulerAnglesHint: {x: 0, y: 0, z: 0}
--- !u!1 &1186076949
GameObject:
  m_ObjectHideFlags: 0
  m_PrefabParentObject: {fileID: 0}
  m_PrefabInternal: {fileID: 0}
  serializedVersion: 5
  m_Component:
  - component: {fileID: 1186076954}
  - component: {fileID: 1186076953}
  - component: {fileID: 1186076950}
  - component: {fileID: 1186076951}
  m_Layer: 0
  m_Name: Main Camera
  m_TagString: MainCamera
  m_Icon: {fileID: 0}
  m_NavMeshLayer: 0
  m_StaticEditorFlags: 0
  m_IsActive: 1
--- !u!81 &1186076950
AudioListener:
  m_ObjectHideFlags: 0
  m_PrefabParentObject: {fileID: 0}
  m_PrefabInternal: {fileID: 0}
  m_GameObject: {fileID: 1186076949}
  m_Enabled: 1
--- !u!114 &1186076951
MonoBehaviour:
  m_ObjectHideFlags: 0
  m_PrefabParentObject: {fileID: 0}
  m_PrefabInternal: {fileID: 0}
  m_GameObject: {fileID: 1186076949}
  m_Enabled: 1
  m_EditorHideFlags: 0
  m_Script: {fileID: 11500000, guid: f35c02a2c6230584391703bf32006791, type: 3}
  m_Name: 
  m_EditorClassIdentifier: 
  m_DebugShader: {fileID: 4800000, guid: 91e29ad407521e447a7254f5c1ea9b54, type: 3}
  m_ShadowmapShader: {fileID: 4800000, guid: 2c4cd42b134f7864fa579350e9cf6896, type: 3}
  m_InjectLightingAndDensity: {fileID: 7200000, guid: 55812fd61bd54104aa23612fc28bfeb8,
    type: 3}
  m_Scatter: {fileID: 7200000, guid: 2a7c01c2354d03a4e9c31096bf130b6a, type: 3}
  m_ApplyToOpaqueShader: {fileID: 4800000, guid: 6f73df8e11615074dbf62a3a384af521,
    type: 3}
  m_BlurShadowmapShader: {fileID: 4800000, guid: 701192b62a7678549918bc87434699fe,
    type: 3}
  m_Noise: {fileID: 2800000, guid: 35eb47181d630134c97488476efbda59, type: 3}
  m_Debug: 0
  m_Z: 1
  m_NearClip: 1.4
  m_FarClipMax: 100
  m_GlobalDensityMult: 1
  m_ConstantFog: 100
  m_HeightFogAmount: 1
  m_HeightFogExponent: 0
  m_HeightFogOffset: 0
  m_NoiseFogAmount: 0
  m_NoiseFogScale: 1
  m_Wind: {fileID: 0}
  m_Anisotropy: 0.179
  m_GlobalIntensityMult: 1
  m_AmbientLightIntensity: 0
  m_AmbientLightColor: {r: 1, g: 1, b: 1, a: 1}
--- !u!20 &1186076953
Camera:
  m_ObjectHideFlags: 0
  m_PrefabParentObject: {fileID: 0}
  m_PrefabInternal: {fileID: 0}
  m_GameObject: {fileID: 1186076949}
  m_Enabled: 1
  serializedVersion: 2
  m_ClearFlags: 2
  m_BackGroundColor: {r: 0, g: 0, b: 0, a: 0}
  m_NormalizedViewPortRect:
    serializedVersion: 2
    x: 0
    y: 0
    width: 1
    height: 1
  near clip plane: 0.3
  far clip plane: 20
  field of view: 60
  orthographic: 0
  orthographic size: 5
  m_Depth: -1
  m_CullingMask:
    serializedVersion: 2
    m_Bits: 4294967295
  m_RenderingPath: -1
  m_TargetTexture: {fileID: 0}
  m_TargetDisplay: 0
  m_TargetEye: 3
  m_HDR: 1
  m_AllowMSAA: 1
  m_AllowDynamicResolution: 0
  m_ForceIntoRT: 0
  m_OcclusionCulling: 1
  m_StereoConvergence: 10
  m_StereoSeparation: 0.022
--- !u!4 &1186076954
Transform:
  m_ObjectHideFlags: 0
  m_PrefabParentObject: {fileID: 0}
  m_PrefabInternal: {fileID: 0}
  m_GameObject: {fileID: 1186076949}
  m_LocalRotation: {x: -0.012010404, y: 0.8968499, z: -0.024396954, w: -0.44149846}
  m_LocalPosition: {x: 11.12, y: 6.87, z: 0.88}
  m_LocalScale: {x: 1, y: 1, z: 1}
  m_Children: []
  m_Father: {fileID: 0}
  m_RootOrder: 2
  m_LocalEulerAnglesHint: {x: 3.0860002, y: -127.84601, z: 0}
--- !u!1 &1268034914
GameObject:
  m_ObjectHideFlags: 0
  m_PrefabParentObject: {fileID: 0}
  m_PrefabInternal: {fileID: 0}
  serializedVersion: 5
  m_Component:
  - component: {fileID: 1268034915}
  m_Layer: 0
  m_Name: Lights
  m_TagString: Untagged
  m_Icon: {fileID: 0}
  m_NavMeshLayer: 0
  m_StaticEditorFlags: 0
  m_IsActive: 1
--- !u!4 &1268034915
Transform:
  m_ObjectHideFlags: 0
  m_PrefabParentObject: {fileID: 0}
  m_PrefabInternal: {fileID: 0}
  m_GameObject: {fileID: 1268034914}
  m_LocalRotation: {x: 0, y: 0, z: 0, w: 1}
  m_LocalPosition: {x: 9.88, y: 7.06, z: -5.59}
  m_LocalScale: {x: 1, y: 1, z: 1}
  m_Children:
  - {fileID: 1315593249}
  - {fileID: 1717851276}
  - {fileID: 1040249006}
  - {fileID: 428239550}
  m_Father: {fileID: 0}
  m_RootOrder: 1
  m_LocalEulerAnglesHint: {x: 0, y: 0, z: 0}
--- !u!1 &1280021150
GameObject:
  m_ObjectHideFlags: 0
  m_PrefabParentObject: {fileID: 0}
  m_PrefabInternal: {fileID: 0}
  serializedVersion: 5
  m_Component:
  - component: {fileID: 1280021154}
  - component: {fileID: 1280021153}
  - component: {fileID: 1280021152}
  - component: {fileID: 1280021151}
  m_Layer: 0
  m_Name: Plane (5)
  m_TagString: Untagged
  m_Icon: {fileID: 0}
  m_NavMeshLayer: 0
  m_StaticEditorFlags: 0
  m_IsActive: 1
--- !u!23 &1280021151
MeshRenderer:
  m_ObjectHideFlags: 0
  m_PrefabParentObject: {fileID: 0}
  m_PrefabInternal: {fileID: 0}
  m_GameObject: {fileID: 1280021150}
  m_Enabled: 1
  m_CastShadows: 1
  m_ReceiveShadows: 1
  m_DynamicOccludee: 1
  m_MotionVectors: 1
  m_LightProbeUsage: 1
  m_ReflectionProbeUsage: 1
  m_Materials:
  - {fileID: 2100000, guid: 407b0765066496e4da88d97aa9205037, type: 2}
  m_StaticBatchInfo:
    firstSubMesh: 0
    subMeshCount: 0
  m_StaticBatchRoot: {fileID: 0}
  m_ProbeAnchor: {fileID: 0}
  m_LightProbeVolumeOverride: {fileID: 0}
  m_ScaleInLightmap: 1
  m_PreserveUVs: 1
  m_IgnoreNormalsForChartDetection: 0
  m_ImportantGI: 0
  m_StitchLightmapSeams: 0
  m_SelectedEditorRenderState: 3
  m_MinimumChartSize: 4
  m_AutoUVMaxDistance: 0.5
  m_AutoUVMaxAngle: 89
  m_LightmapParameters: {fileID: 0}
  m_SortingLayerID: 0
  m_SortingLayer: 0
  m_SortingOrder: 0
--- !u!64 &1280021152
MeshCollider:
  m_ObjectHideFlags: 0
  m_PrefabParentObject: {fileID: 0}
  m_PrefabInternal: {fileID: 0}
  m_GameObject: {fileID: 1280021150}
  m_Material: {fileID: 0}
  m_IsTrigger: 0
  m_Enabled: 1
  serializedVersion: 3
  m_Convex: 0
  m_CookingOptions: 14
  m_SkinWidth: 0.01
  m_Mesh: {fileID: 10209, guid: 0000000000000000e000000000000000, type: 0}
--- !u!33 &1280021153
MeshFilter:
  m_ObjectHideFlags: 0
  m_PrefabParentObject: {fileID: 0}
  m_PrefabInternal: {fileID: 0}
  m_GameObject: {fileID: 1280021150}
  m_Mesh: {fileID: 10209, guid: 0000000000000000e000000000000000, type: 0}
--- !u!4 &1280021154
Transform:
  m_ObjectHideFlags: 0
  m_PrefabParentObject: {fileID: 0}
  m_PrefabInternal: {fileID: 0}
  m_GameObject: {fileID: 1280021150}
  m_LocalRotation: {x: 1, y: -0, z: -0, w: 0}
  m_LocalPosition: {x: -1.7578278, y: 11.960001, z: 3.6027324}
  m_LocalScale: {x: 1.953109, y: 1.9531087, z: 1.9531087}
  m_Children:
  - {fileID: 225059904}
  m_Father: {fileID: 1147608812}
  m_RootOrder: 7
  m_LocalEulerAnglesHint: {x: 180, y: 0, z: 0}
--- !u!1 &1301331058
GameObject:
  m_ObjectHideFlags: 0
  m_PrefabParentObject: {fileID: 0}
  m_PrefabInternal: {fileID: 0}
  serializedVersion: 5
  m_Component:
  - component: {fileID: 1301331062}
  - component: {fileID: 1301331061}
  - component: {fileID: 1301331060}
  - component: {fileID: 1301331059}
  m_Layer: 0
  m_Name: Plane (4)
  m_TagString: Untagged
  m_Icon: {fileID: 0}
  m_NavMeshLayer: 0
  m_StaticEditorFlags: 0
  m_IsActive: 1
--- !u!23 &1301331059
MeshRenderer:
  m_ObjectHideFlags: 0
  m_PrefabParentObject: {fileID: 0}
  m_PrefabInternal: {fileID: 0}
  m_GameObject: {fileID: 1301331058}
  m_Enabled: 1
  m_CastShadows: 1
  m_ReceiveShadows: 1
  m_DynamicOccludee: 1
  m_MotionVectors: 1
  m_LightProbeUsage: 1
  m_ReflectionProbeUsage: 1
  m_Materials:
  - {fileID: 2100000, guid: 407b0765066496e4da88d97aa9205037, type: 2}
  m_StaticBatchInfo:
    firstSubMesh: 0
    subMeshCount: 0
  m_StaticBatchRoot: {fileID: 0}
  m_ProbeAnchor: {fileID: 0}
  m_LightProbeVolumeOverride: {fileID: 0}
  m_ScaleInLightmap: 1
  m_PreserveUVs: 1
  m_IgnoreNormalsForChartDetection: 0
  m_ImportantGI: 0
  m_StitchLightmapSeams: 0
  m_SelectedEditorRenderState: 3
  m_MinimumChartSize: 4
  m_AutoUVMaxDistance: 0.5
  m_AutoUVMaxAngle: 89
  m_LightmapParameters: {fileID: 0}
  m_SortingLayerID: 0
  m_SortingLayer: 0
  m_SortingOrder: 0
--- !u!64 &1301331060
MeshCollider:
  m_ObjectHideFlags: 0
  m_PrefabParentObject: {fileID: 0}
  m_PrefabInternal: {fileID: 0}
  m_GameObject: {fileID: 1301331058}
  m_Material: {fileID: 0}
  m_IsTrigger: 0
  m_Enabled: 1
  serializedVersion: 3
  m_Convex: 0
  m_CookingOptions: 14
  m_SkinWidth: 0.01
  m_Mesh: {fileID: 10209, guid: 0000000000000000e000000000000000, type: 0}
--- !u!33 &1301331061
MeshFilter:
  m_ObjectHideFlags: 0
  m_PrefabParentObject: {fileID: 0}
  m_PrefabInternal: {fileID: 0}
  m_GameObject: {fileID: 1301331058}
  m_Mesh: {fileID: 10209, guid: 0000000000000000e000000000000000, type: 0}
--- !u!4 &1301331062
Transform:
  m_ObjectHideFlags: 0
  m_PrefabParentObject: {fileID: 0}
  m_PrefabInternal: {fileID: 0}
  m_GameObject: {fileID: 1301331058}
  m_LocalRotation: {x: -0.5, y: -0.5, z: -0.5, w: 0.5}
  m_LocalPosition: {x: -11.54, y: 8.690001, z: 3.6600003}
  m_LocalScale: {x: 1.953109, y: 1.9531087, z: 1.9531087}
  m_Children:
  - {fileID: 2053504865}
  m_Father: {fileID: 1147608812}
  m_RootOrder: 6
  m_LocalEulerAnglesHint: {x: -90, y: -90, z: 0}
--- !u!1001 &1315593248
Prefab:
  m_ObjectHideFlags: 0
  serializedVersion: 2
  m_Modification:
    m_TransformParent: {fileID: 1268034915}
    m_Modifications:
    - target: {fileID: 4000012687929690, guid: a81286e4a5a12aa41825352231edaae9, type: 2}
      propertyPath: m_LocalPosition.x
      value: -18.808472
      objectReference: {fileID: 0}
    - target: {fileID: 4000012687929690, guid: a81286e4a5a12aa41825352231edaae9, type: 2}
      propertyPath: m_LocalPosition.y
      value: -3.632953
      objectReference: {fileID: 0}
    - target: {fileID: 4000012687929690, guid: a81286e4a5a12aa41825352231edaae9, type: 2}
      propertyPath: m_LocalPosition.z
      value: 5.376822
      objectReference: {fileID: 0}
    - target: {fileID: 4000012687929690, guid: a81286e4a5a12aa41825352231edaae9, type: 2}
      propertyPath: m_LocalRotation.x
      value: -0
      objectReference: {fileID: 0}
    - target: {fileID: 4000012687929690, guid: a81286e4a5a12aa41825352231edaae9, type: 2}
      propertyPath: m_LocalRotation.y
      value: -0
      objectReference: {fileID: 0}
    - target: {fileID: 4000012687929690, guid: a81286e4a5a12aa41825352231edaae9, type: 2}
      propertyPath: m_LocalRotation.z
      value: -0
      objectReference: {fileID: 0}
    - target: {fileID: 4000012687929690, guid: a81286e4a5a12aa41825352231edaae9, type: 2}
      propertyPath: m_LocalRotation.w
      value: 1
      objectReference: {fileID: 0}
    - target: {fileID: 4000012687929690, guid: a81286e4a5a12aa41825352231edaae9, type: 2}
      propertyPath: m_RootOrder
      value: 0
      objectReference: {fileID: 0}
    m_RemovedComponents: []
  m_ParentPrefab: {fileID: 100100000, guid: a81286e4a5a12aa41825352231edaae9, type: 2}
  m_IsPrefabParent: 0
--- !u!4 &1315593249 stripped
Transform:
  m_PrefabParentObject: {fileID: 4000012687929690, guid: a81286e4a5a12aa41825352231edaae9,
    type: 2}
  m_PrefabInternal: {fileID: 1315593248}
--- !u!1 &1436369042
GameObject:
  m_ObjectHideFlags: 0
  m_PrefabParentObject: {fileID: 0}
  m_PrefabInternal: {fileID: 0}
  serializedVersion: 5
  m_Component:
  - component: {fileID: 1436369043}
  m_Layer: 0
  m_Name: GameObject
  m_TagString: Untagged
  m_Icon: {fileID: 0}
  m_NavMeshLayer: 0
  m_StaticEditorFlags: 0
  m_IsActive: 1
--- !u!4 &1436369043
Transform:
  m_ObjectHideFlags: 0
  m_PrefabParentObject: {fileID: 0}
  m_PrefabInternal: {fileID: 0}
  m_GameObject: {fileID: 1436369042}
  m_LocalRotation: {x: 0, y: 0, z: 0, w: 1}
  m_LocalPosition: {x: 0, y: 0, z: 0}
  m_LocalScale: {x: 1, y: 1, z: 1}
  m_Children: []
  m_Father: {fileID: 2116681704}
  m_RootOrder: 0
  m_LocalEulerAnglesHint: {x: 0, y: 0, z: 0}
--- !u!1 &1556200812
GameObject:
  m_ObjectHideFlags: 0
  m_PrefabParentObject: {fileID: 0}
  m_PrefabInternal: {fileID: 0}
  serializedVersion: 5
  m_Component:
  - component: {fileID: 1556200813}
  m_Layer: 0
  m_Name: GameObject
  m_TagString: Untagged
  m_Icon: {fileID: 0}
  m_NavMeshLayer: 0
  m_StaticEditorFlags: 0
  m_IsActive: 1
--- !u!4 &1556200813
Transform:
  m_ObjectHideFlags: 0
  m_PrefabParentObject: {fileID: 0}
  m_PrefabInternal: {fileID: 0}
  m_GameObject: {fileID: 1556200812}
  m_LocalRotation: {x: 0, y: 0, z: 0, w: 1}
  m_LocalPosition: {x: 0, y: 0, z: 0}
  m_LocalScale: {x: 1, y: 1, z: 1}
  m_Children: []
  m_Father: {fileID: 1865025248}
  m_RootOrder: 0
  m_LocalEulerAnglesHint: {x: 0, y: 0, z: 0}
--- !u!1001 &1717851275
Prefab:
  m_ObjectHideFlags: 0
  serializedVersion: 2
  m_Modification:
    m_TransformParent: {fileID: 1268034915}
    m_Modifications:
    - target: {fileID: 4000014113918066, guid: c946fa75949b4b0469e29c6e49bd3577, type: 2}
      propertyPath: m_LocalPosition.x
      value: -2.0300002
      objectReference: {fileID: 0}
    - target: {fileID: 4000014113918066, guid: c946fa75949b4b0469e29c6e49bd3577, type: 2}
      propertyPath: m_LocalPosition.y
      value: 1.1699996
      objectReference: {fileID: 0}
    - target: {fileID: 4000014113918066, guid: c946fa75949b4b0469e29c6e49bd3577, type: 2}
      propertyPath: m_LocalPosition.z
      value: 1.48
      objectReference: {fileID: 0}
    - target: {fileID: 4000014113918066, guid: c946fa75949b4b0469e29c6e49bd3577, type: 2}
      propertyPath: m_LocalRotation.x
      value: 0.16011225
      objectReference: {fileID: 0}
    - target: {fileID: 4000014113918066, guid: c946fa75949b4b0469e29c6e49bd3577, type: 2}
      propertyPath: m_LocalRotation.y
      value: -0
      objectReference: {fileID: 0}
    - target: {fileID: 4000014113918066, guid: c946fa75949b4b0469e29c6e49bd3577, type: 2}
      propertyPath: m_LocalRotation.z
      value: -0
      objectReference: {fileID: 0}
    - target: {fileID: 4000014113918066, guid: c946fa75949b4b0469e29c6e49bd3577, type: 2}
      propertyPath: m_LocalRotation.w
      value: 0.9870989
      objectReference: {fileID: 0}
    - target: {fileID: 4000014113918066, guid: c946fa75949b4b0469e29c6e49bd3577, type: 2}
      propertyPath: m_RootOrder
      value: 1
      objectReference: {fileID: 0}
    - target: {fileID: 33000012356353452, guid: c946fa75949b4b0469e29c6e49bd3577,
        type: 2}
      propertyPath: m_Mesh
      value: 
      objectReference: {fileID: 0}
    - target: {fileID: 114000011647635530, guid: c946fa75949b4b0469e29c6e49bd3577,
        type: 2}
      propertyPath: m_Angle
      value: 75
      objectReference: {fileID: 0}
    - target: {fileID: 4000014113918066, guid: c946fa75949b4b0469e29c6e49bd3577, type: 2}
      propertyPath: m_LocalEulerAnglesHint.x
      value: 18.381
      objectReference: {fileID: 0}
    - target: {fileID: 114000011647635530, guid: c946fa75949b4b0469e29c6e49bd3577,
        type: 2}
      propertyPath: m_Size.x
      value: 2
      objectReference: {fileID: 0}
    - target: {fileID: 114000011647635530, guid: c946fa75949b4b0469e29c6e49bd3577,
        type: 2}
      propertyPath: m_Shadows
      value: 1
      objectReference: {fileID: 0}
    - target: {fileID: 114000011647635530, guid: c946fa75949b4b0469e29c6e49bd3577,
        type: 2}
      propertyPath: m_ShadowBias
      value: 0.0154
      objectReference: {fileID: 0}
    - target: {fileID: 114000011647635530, guid: c946fa75949b4b0469e29c6e49bd3577,
        type: 2}
      propertyPath: m_Size.z
      value: 10.38
      objectReference: {fileID: 0}
    - target: {fileID: 114000013519192348, guid: c946fa75949b4b0469e29c6e49bd3577,
        type: 2}
      propertyPath: m_Shadows
      value: 1
      objectReference: {fileID: 0}
    - target: {fileID: 114000011647635530, guid: c946fa75949b4b0469e29c6e49bd3577,
        type: 2}
      propertyPath: m_Size.y
      value: 4
      objectReference: {fileID: 0}
    - target: {fileID: 114000013519192348, guid: c946fa75949b4b0469e29c6e49bd3577,
        type: 2}
      propertyPath: m_BlurIterations
      value: 1
      objectReference: {fileID: 0}
    - target: {fileID: 114000013519192348, guid: c946fa75949b4b0469e29c6e49bd3577,
        type: 2}
      propertyPath: m_BlurSize
      value: 2.32
      objectReference: {fileID: 0}
    - target: {fileID: 114000013519192348, guid: c946fa75949b4b0469e29c6e49bd3577,
        type: 2}
      propertyPath: m_Bounded
      value: 1
      objectReference: {fileID: 0}
    - target: {fileID: 114000011647635530, guid: c946fa75949b4b0469e29c6e49bd3577,
        type: 2}
      propertyPath: m_Intensity
      value: 1.6
      objectReference: {fileID: 0}
    - target: {fileID: 114000011647635530, guid: c946fa75949b4b0469e29c6e49bd3577,
        type: 2}
      propertyPath: m_ShadowmapRes
      value: 1024
      objectReference: {fileID: 0}
    - target: {fileID: 1000010046428508, guid: c946fa75949b4b0469e29c6e49bd3577, type: 2}
      propertyPath: m_IsActive
      value: 1
      objectReference: {fileID: 0}
    - target: {fileID: 114000011647635530, guid: c946fa75949b4b0469e29c6e49bd3577,
        type: 2}
      propertyPath: m_Enabled
      value: 1
      objectReference: {fileID: 0}
    - target: {fileID: 114000011647635530, guid: c946fa75949b4b0469e29c6e49bd3577,
        type: 2}
      propertyPath: m_RenderSource
      value: 1
      objectReference: {fileID: 0}
    - target: {fileID: 114000013519192348, guid: c946fa75949b4b0469e29c6e49bd3577,
        type: 2}
      propertyPath: m_ForceOnForFog
      value: 0
      objectReference: {fileID: 0}
    m_RemovedComponents: []
  m_ParentPrefab: {fileID: 100100000, guid: c946fa75949b4b0469e29c6e49bd3577, type: 2}
  m_IsPrefabParent: 0
--- !u!4 &1717851276 stripped
Transform:
  m_PrefabParentObject: {fileID: 4000014113918066, guid: c946fa75949b4b0469e29c6e49bd3577,
    type: 2}
  m_PrefabInternal: {fileID: 1717851275}
--- !u!1 &1865025244
GameObject:
  m_ObjectHideFlags: 0
  m_PrefabParentObject: {fileID: 0}
  m_PrefabInternal: {fileID: 0}
  serializedVersion: 5
  m_Component:
  - component: {fileID: 1865025248}
  - component: {fileID: 1865025247}
  - component: {fileID: 1865025246}
  - component: {fileID: 1865025245}
  m_Layer: 0
  m_Name: Plane (2)
  m_TagString: Untagged
  m_Icon: {fileID: 0}
  m_NavMeshLayer: 0
  m_StaticEditorFlags: 0
  m_IsActive: 1
--- !u!23 &1865025245
MeshRenderer:
  m_ObjectHideFlags: 0
  m_PrefabParentObject: {fileID: 0}
  m_PrefabInternal: {fileID: 0}
  m_GameObject: {fileID: 1865025244}
  m_Enabled: 1
  m_CastShadows: 1
  m_ReceiveShadows: 1
  m_DynamicOccludee: 1
  m_MotionVectors: 1
  m_LightProbeUsage: 1
  m_ReflectionProbeUsage: 1
  m_Materials:
  - {fileID: 2100000, guid: 407b0765066496e4da88d97aa9205037, type: 2}
  m_StaticBatchInfo:
    firstSubMesh: 0
    subMeshCount: 0
  m_StaticBatchRoot: {fileID: 0}
  m_ProbeAnchor: {fileID: 0}
  m_LightProbeVolumeOverride: {fileID: 0}
  m_ScaleInLightmap: 1
  m_PreserveUVs: 1
  m_IgnoreNormalsForChartDetection: 0
  m_ImportantGI: 0
  m_StitchLightmapSeams: 0
  m_SelectedEditorRenderState: 3
  m_MinimumChartSize: 4
  m_AutoUVMaxDistance: 0.5
  m_AutoUVMaxAngle: 89
  m_LightmapParameters: {fileID: 0}
  m_SortingLayerID: 0
  m_SortingLayer: 0
  m_SortingOrder: 0
--- !u!64 &1865025246
MeshCollider:
  m_ObjectHideFlags: 0
  m_PrefabParentObject: {fileID: 0}
  m_PrefabInternal: {fileID: 0}
  m_GameObject: {fileID: 1865025244}
  m_Material: {fileID: 0}
  m_IsTrigger: 0
  m_Enabled: 1
  serializedVersion: 3
  m_Convex: 0
  m_CookingOptions: 14
  m_SkinWidth: 0.01
  m_Mesh: {fileID: 10209, guid: 0000000000000000e000000000000000, type: 0}
--- !u!33 &1865025247
MeshFilter:
  m_ObjectHideFlags: 0
  m_PrefabParentObject: {fileID: 0}
  m_PrefabInternal: {fileID: 0}
  m_GameObject: {fileID: 1865025244}
  m_Mesh: {fileID: 10209, guid: 0000000000000000e000000000000000, type: 0}
--- !u!4 &1865025248
Transform:
  m_ObjectHideFlags: 0
  m_PrefabParentObject: {fileID: 0}
  m_PrefabInternal: {fileID: 0}
  m_GameObject: {fileID: 1865025244}
  m_LocalRotation: {x: -0.7071068, y: -0, z: -0, w: 0.7071068}
  m_LocalPosition: {x: -1.7578278, y: 8.780001, z: 13}
  m_LocalScale: {x: 1.953109, y: 1.9531096, z: 1.9531096}
  m_Children:
  - {fileID: 1556200813}
  m_Father: {fileID: 1147608812}
  m_RootOrder: 4
  m_LocalEulerAnglesHint: {x: -90, y: 0, z: 0}
--- !u!1 &1906959828
GameObject:
  m_ObjectHideFlags: 0
  m_PrefabParentObject: {fileID: 0}
  m_PrefabInternal: {fileID: 0}
  serializedVersion: 5
  m_Component:
  - component: {fileID: 1906959832}
  - component: {fileID: 1906959831}
  - component: {fileID: 1906959830}
  - component: {fileID: 1906959829}
  m_Layer: 0
  m_Name: Sphere (1)
  m_TagString: Untagged
  m_Icon: {fileID: 0}
  m_NavMeshLayer: 0
  m_StaticEditorFlags: 0
  m_IsActive: 1
--- !u!23 &1906959829
MeshRenderer:
  m_ObjectHideFlags: 0
  m_PrefabParentObject: {fileID: 0}
  m_PrefabInternal: {fileID: 0}
  m_GameObject: {fileID: 1906959828}
  m_Enabled: 1
  m_CastShadows: 1
  m_ReceiveShadows: 1
  m_DynamicOccludee: 1
  m_MotionVectors: 1
  m_LightProbeUsage: 1
  m_ReflectionProbeUsage: 1
  m_Materials:
  - {fileID: 2100000, guid: 407b0765066496e4da88d97aa9205037, type: 2}
  m_StaticBatchInfo:
    firstSubMesh: 0
    subMeshCount: 0
  m_StaticBatchRoot: {fileID: 0}
  m_ProbeAnchor: {fileID: 0}
  m_LightProbeVolumeOverride: {fileID: 0}
  m_ScaleInLightmap: 1
  m_PreserveUVs: 1
  m_IgnoreNormalsForChartDetection: 0
  m_ImportantGI: 0
  m_StitchLightmapSeams: 0
  m_SelectedEditorRenderState: 3
  m_MinimumChartSize: 4
  m_AutoUVMaxDistance: 0.5
  m_AutoUVMaxAngle: 89
  m_LightmapParameters: {fileID: 0}
  m_SortingLayerID: 0
  m_SortingLayer: 0
  m_SortingOrder: 0
--- !u!135 &1906959830
SphereCollider:
  m_ObjectHideFlags: 0
  m_PrefabParentObject: {fileID: 0}
  m_PrefabInternal: {fileID: 0}
  m_GameObject: {fileID: 1906959828}
  m_Material: {fileID: 0}
  m_IsTrigger: 0
  m_Enabled: 1
  serializedVersion: 2
  m_Radius: 0.5
  m_Center: {x: 0, y: 0, z: 0}
--- !u!33 &1906959831
MeshFilter:
  m_ObjectHideFlags: 0
  m_PrefabParentObject: {fileID: 0}
  m_PrefabInternal: {fileID: 0}
  m_GameObject: {fileID: 1906959828}
  m_Mesh: {fileID: 10207, guid: 0000000000000000e000000000000000, type: 0}
--- !u!4 &1906959832
Transform:
  m_ObjectHideFlags: 0
  m_PrefabParentObject: {fileID: 0}
  m_PrefabInternal: {fileID: 0}
  m_GameObject: {fileID: 1906959828}
  m_LocalRotation: {x: -0, y: -0, z: -0, w: 1}
  m_LocalPosition: {x: -3.92, y: -1.0679998, z: 4.7200003}
  m_LocalScale: {x: 1.9221464, y: 1.9221447, z: 1.9221447}
  m_Children:
  - {fileID: 589242806}
  m_Father: {fileID: 1147608812}
  m_RootOrder: 8
  m_LocalEulerAnglesHint: {x: 0, y: 0, z: 0}
--- !u!1 &2053504864
GameObject:
  m_ObjectHideFlags: 0
  m_PrefabParentObject: {fileID: 0}
  m_PrefabInternal: {fileID: 0}
  serializedVersion: 5
  m_Component:
  - component: {fileID: 2053504865}
  m_Layer: 0
  m_Name: GameObject
  m_TagString: Untagged
  m_Icon: {fileID: 0}
  m_NavMeshLayer: 0
  m_StaticEditorFlags: 0
  m_IsActive: 1
--- !u!4 &2053504865
Transform:
  m_ObjectHideFlags: 0
  m_PrefabParentObject: {fileID: 0}
  m_PrefabInternal: {fileID: 0}
  m_GameObject: {fileID: 2053504864}
  m_LocalRotation: {x: 0, y: 0, z: 0, w: 1}
  m_LocalPosition: {x: 0, y: 0, z: 0}
  m_LocalScale: {x: 1, y: 1, z: 1}
  m_Children: []
  m_Father: {fileID: 1301331062}
  m_RootOrder: 0
  m_LocalEulerAnglesHint: {x: 0, y: 0, z: 0}
--- !u!1 &2116681700
GameObject:
  m_ObjectHideFlags: 0
  m_PrefabParentObject: {fileID: 0}
  m_PrefabInternal: {fileID: 0}
  serializedVersion: 5
  m_Component:
  - component: {fileID: 2116681704}
  - component: {fileID: 2116681703}
  - component: {fileID: 2116681702}
  - component: {fileID: 2116681701}
  m_Layer: 0
  m_Name: Sphere
  m_TagString: Untagged
  m_Icon: {fileID: 0}
  m_NavMeshLayer: 0
  m_StaticEditorFlags: 0
  m_IsActive: 1
--- !u!23 &2116681701
MeshRenderer:
  m_ObjectHideFlags: 0
  m_PrefabParentObject: {fileID: 0}
  m_PrefabInternal: {fileID: 0}
  m_GameObject: {fileID: 2116681700}
  m_Enabled: 1
  m_CastShadows: 1
  m_ReceiveShadows: 1
  m_DynamicOccludee: 1
  m_MotionVectors: 1
  m_LightProbeUsage: 1
  m_ReflectionProbeUsage: 1
  m_Materials:
  - {fileID: 2100000, guid: 407b0765066496e4da88d97aa9205037, type: 2}
  m_StaticBatchInfo:
    firstSubMesh: 0
    subMeshCount: 0
  m_StaticBatchRoot: {fileID: 0}
  m_ProbeAnchor: {fileID: 0}
  m_LightProbeVolumeOverride: {fileID: 0}
  m_ScaleInLightmap: 1
  m_PreserveUVs: 1
  m_IgnoreNormalsForChartDetection: 0
  m_ImportantGI: 0
  m_StitchLightmapSeams: 0
  m_SelectedEditorRenderState: 3
  m_MinimumChartSize: 4
  m_AutoUVMaxDistance: 0.5
  m_AutoUVMaxAngle: 89
  m_LightmapParameters: {fileID: 0}
  m_SortingLayerID: 0
  m_SortingLayer: 0
  m_SortingOrder: 0
--- !u!135 &2116681702
SphereCollider:
  m_ObjectHideFlags: 0
  m_PrefabParentObject: {fileID: 0}
  m_PrefabInternal: {fileID: 0}
  m_GameObject: {fileID: 2116681700}
  m_Material: {fileID: 0}
  m_IsTrigger: 0
  m_Enabled: 1
  serializedVersion: 2
  m_Radius: 0.5
  m_Center: {x: 0, y: 0, z: 0}
--- !u!33 &2116681703
MeshFilter:
  m_ObjectHideFlags: 0
  m_PrefabParentObject: {fileID: 0}
  m_PrefabInternal: {fileID: 0}
  m_GameObject: {fileID: 2116681700}
  m_Mesh: {fileID: 10207, guid: 0000000000000000e000000000000000, type: 0}
--- !u!4 &2116681704
Transform:
  m_ObjectHideFlags: 0
  m_PrefabParentObject: {fileID: 0}
  m_PrefabInternal: {fileID: 0}
  m_GameObject: {fileID: 2116681700}
  m_LocalRotation: {x: -0, y: -0, z: -0, w: 1}
  m_LocalPosition: {x: -2.48, y: 0.2670002, z: 2.9220002}
  m_LocalScale: {x: 1.9221464, y: 1.9221447, z: 1.9221447}
  m_Children:
  - {fileID: 1436369043}
  m_Father: {fileID: 1147608812}
  m_RootOrder: 2
  m_LocalEulerAnglesHint: {x: 0, y: 0, z: 0}
--- !u!1 &2137368261
GameObject:
  m_ObjectHideFlags: 0
  m_PrefabParentObject: {fileID: 0}
  m_PrefabInternal: {fileID: 0}
  serializedVersion: 5
  m_Component:
  - component: {fileID: 2137368265}
  - component: {fileID: 2137368264}
  - component: {fileID: 2137368263}
  - component: {fileID: 2137368262}
  m_Layer: 0
  m_Name: Plane (1)
  m_TagString: Untagged
  m_Icon: {fileID: 0}
  m_NavMeshLayer: 0
  m_StaticEditorFlags: 0
  m_IsActive: 1
--- !u!23 &2137368262
MeshRenderer:
  m_ObjectHideFlags: 0
  m_PrefabParentObject: {fileID: 0}
  m_PrefabInternal: {fileID: 0}
  m_GameObject: {fileID: 2137368261}
  m_Enabled: 1
  m_CastShadows: 1
  m_ReceiveShadows: 1
  m_DynamicOccludee: 1
  m_MotionVectors: 1
  m_LightProbeUsage: 1
  m_ReflectionProbeUsage: 1
  m_Materials:
  - {fileID: 2100000, guid: 407b0765066496e4da88d97aa9205037, type: 2}
  m_StaticBatchInfo:
    firstSubMesh: 0
    subMeshCount: 0
  m_StaticBatchRoot: {fileID: 0}
  m_ProbeAnchor: {fileID: 0}
  m_LightProbeVolumeOverride: {fileID: 0}
  m_ScaleInLightmap: 1
  m_PreserveUVs: 1
  m_IgnoreNormalsForChartDetection: 0
  m_ImportantGI: 0
  m_StitchLightmapSeams: 0
  m_SelectedEditorRenderState: 3
  m_MinimumChartSize: 4
  m_AutoUVMaxDistance: 0.5
  m_AutoUVMaxAngle: 89
  m_LightmapParameters: {fileID: 0}
  m_SortingLayerID: 0
  m_SortingLayer: 0
  m_SortingOrder: 0
--- !u!64 &2137368263
MeshCollider:
  m_ObjectHideFlags: 0
  m_PrefabParentObject: {fileID: 0}
  m_PrefabInternal: {fileID: 0}
  m_GameObject: {fileID: 2137368261}
  m_Material: {fileID: 0}
  m_IsTrigger: 0
  m_Enabled: 1
  serializedVersion: 3
  m_Convex: 0
  m_CookingOptions: 14
  m_SkinWidth: 0.01
  m_Mesh: {fileID: 10209, guid: 0000000000000000e000000000000000, type: 0}
--- !u!33 &2137368264
MeshFilter:
  m_ObjectHideFlags: 0
  m_PrefabParentObject: {fileID: 0}
  m_PrefabInternal: {fileID: 0}
  m_GameObject: {fileID: 2137368261}
  m_Mesh: {fileID: 10209, guid: 0000000000000000e000000000000000, type: 0}
--- !u!4 &2137368265
Transform:
  m_ObjectHideFlags: 0
  m_PrefabParentObject: {fileID: 0}
  m_PrefabInternal: {fileID: 0}
  m_GameObject: {fileID: 2137368261}
  m_LocalRotation: {x: 0.7071068, y: -0, z: -0, w: 0.7071068}
  m_LocalPosition: {x: -1.7578278, y: 8.780001, z: -5.9300003}
  m_LocalScale: {x: 1.953109, y: 1.9531096, z: 1.9531096}
  m_Children:
  - {fileID: 14037272}
  m_Father: {fileID: 1147608812}
  m_RootOrder: 3
  m_LocalEulerAnglesHint: {x: 90, y: 0, z: 0}
